Percpfión de los colores - Resultados gráficos de encuesta Xkcd – |>
…
)

answers <- readr::read_csv('https://raw.githubusercontent.com/rfordatascience/tidytuesday/main/data/2025/2025-07-08/answers.csv')
color_ranks <- readr::read_csv('https://raw.githubusercontent.com/rfordatascience/tidytuesday/main/data/2025/2025-07-08/color_ranks.csv')
users <- readr::read_csv('https://raw.githubusercontent.com/rfordatascience/tidytuesday/main/data/2025/2025-07-08/users.csv')

answers |> count(user_id, sort = TRUE, name = "answers") |> count(answers, sort = TRUE)

# A tibble: 183 × 2
   answers     n
     <int> <int>
 1       1 17141
 2       2 16036
 3       3 14144
 4       4 12141
 5       5 10126
 6       6  8234
 7       7  6853
 8       8  5709
 9       9  4724
10      10  3927
# ℹ 173 more rows
…
